…
## bootstrap derived metrics with confidence intervals  
(assessment$Summary_metrics)
#> # A tibble: 22 × 2
#>    metric            statistics                  
#>    <chr>             <chr>                       
#>  1 n                 432 (CI: 427.9 to 440.52)   
#>  2 n_event           88.5 (CI: 71.22 to 97.57)   
#>  3 n_non_event       345.5 (CI: 333.42 to 361.15)
#>  4 Prevalence        0.2 (CI: 0.16 to 0.23)      
#>  5 NRI_up_event      19 (CI: 10.8 to 30.72)      
#>  6 NRI_up_nonevent   19.5 (CI: 11.95 to 27.57)   
#>  7 NRI_down_event    11 (CI: 6.48 to 18.1)       
#>  8 NRI_down_nonevent 69.5 (CI: 51.9 to 101.07)   
#>  9 NRI_event         0.09 (CI: 0 to 0.23)        
#> 10 NRI_nonevent      0.15 (CI: 0.08 to 0.22)     
#> # … with 12 more rows
```
…
